Afkortingen;Alias;Betekenis
fid;fid;Identificatie nummer
OBJECTID;OBJECTID;Identificatie nummer
BU_CODE;buurtcode;Buurtcode
kvid;kvid;Identificatie nummer uit een basisregistratie
BU_OPPZA;buurt_opp_zonderagr;buurt oppervlak zonder agrarisch
PC_BE_T;perc_bebouwing_totaal;Totaal percentage bebouwing van de buurt zonder agrarisch
PC_OP_T;perc_openbaar_totaal;Totaal percentage openbare ruimte van de buurt zonder agrarisch
PC_OV_T;perc_overig_totaal;Totaal percentage overig van de buurt zonder agrarisch
PC_PR_T;perc_privaat_totaal;Totaal percentage private ruimte van de buurt zonder agrarisch
PC_TR_T;perc_transitie_totaal;Totaal percentage transitie van de buurt zonder agrarisch
PC_WA_T;perc_water_totaal;Totaal percentage water van de buurt zonder agrarisch
PC_PR_B;perc_privaat_boom;Percentage private ruimte boom van de buurt zonder agrarisch
PC_PR_G;perc_privaat_groen;Percentage private ruimte groen van de buurt zonder agrarisch
PC_PR_NG;perc_privaat_niet_groen;Percentage private ruimte niet groen van de buurt zonder agrarisch
PC_BE_B;perc_bebouwing_boom;Percentage bebouwing boom van de buurt zonder agrarisch
PC_BE_G;perc_bebouwing_groen;Percentage bebouwing groen van de buurt zonder agrarisch
PC_BE_NG;perc_bebouwing_niet_groen;Percentage bebouwing niet groen van de buurt zonder agrarisch
PC_OP_B;perc_openbaar_boom;Percentage openbare ruimte boom van de buurt zonder agrarisch
PC_OP_G;perc_openbaar_groen;Percentage openbare ruimte groen van de buurt zonder agrarisch
PC_OP_NG;perc_openbaar_niet_groen;Percentage openbare ruimte niet groen van de buurt zonder agrarisch
PC_OV_B;perc_overig_boom;Percentage vorig boom van de buurt zonder agrarisch
PC_OV_G;perc_overig_groen;Percentage vorig groen van de buurt zonder agrarisch
PC_OV_NG;perc_overig_niet_groen;Percentage vorig niet groen van de buurt zonder agrarisch
PC_TR_B;perc_transitie_boom;Percentage transitie boom van de buurt zonder agrarisch
PC_TR_G;perc_transitie_groen;Percentage transitie groen van de buurt zonder agrarisch
PC_TR_NG;perc_transitie_niet_groen;Percentage transitie niet groen van de buurt zonder agrarisch
PC_WA;perc_water;Percentage water van de buurt zonder agrarisch
PC_WA_B;perc_water_boom;Percentage water boom van de buurt zonder agrarisch
BU_OPPIA;buurt_opp_incl_agrarisch;Buurt oppervlak inclusief agrarisch
OP_M2_G;openbaar_m2_groen;Aantal m2 openbare ruimte groen
OP_OPP;openbaar_oppervlakte;Totaal aantal m2 openbare ruimte 
OP_M2_NG;openbaar_m2_nietgroen;Aantal m2 openbare ruimte niet groen
PR_M2_G;privaat_m2_groen;Aantal m2 private ruimte groen
PR_OPP;privaat_oppervlakte;Totaal aantal m2 private ruimte 
PR_M2_NG;privaat_m2_nietgroen;Aantal m2 private ruimte niet groen
BE_M2_G;bebouwing_m2_groen;Aantal m2 bebouwing groen
BE_OPP;bebouwing_oppervlakte;Totaal aantal m2 bebouwing
BE_M2_NG;bebouwing_m2_nietgroen;Aantal m2 bebouwing niet groen
WA_OPP;water_oppervlakte;Totaal aantal m2 water
AG_M2_G;agrarisch_m2_groen;Aantal m2 agrarisch groen
AG_OPP;agrarisch_oppervlakte;Totaal aantal m2 agrarisch
AG_M2_NG;agrarisch_m2_nietgroen;Aantal m2 agrarisch niet groen
OV_M2_G;overig_m2_groen;Aantal m2 overig groen
OV_OPP;overig_oppervlakte;Totaal aantal m2 overig
OV_M2_NG;overig_m2_nietgroen;Aantal m2 overig niet groen
TR_M2_G;transitie_m2_groen;Aantal m2 transitie groen
TR_OPP;transitie_oppervlakte;Totaal aantal m2 transitie
TR_M2_NG;transitie_m2_nietgroen;Aantal m2 transitie niet groen
B_OP_OPP;boom_openbaar_oppervlakte;Aantal m2 boom openbare ruimte
B_PR_OPP;boom_privaat_oppervlakte;Aantal m2 boom private ruimte
B_BE_OPP;boom_bebouwing_oppervlakte;Aantal m2 boom bebouwing
B_WA_OPP;boom_water_oppervlakte;Aantal m2 boom water
B_AG_OPP;boom_agrarisch_oppervlakte;Aantal m2 boom agrarisch
B_OV_OPP;boom_overig_oppervlakte;Aantal m2 boom overig
B_TR_OPP;boom_transitie_oppervlakte;Aantal m2 boom transitie
PC_GROEN;PercentageGroen;Totaal percentage groen per buurt (groen + boom, exclusief agrarisch)
PC_LG;PercentageLaagGroen;Totaal percentage laag groen per buurt (groen, exclusief agrarisch)
PC_B;PercentageBoom;Totaal percentage boom per buurt (boom, exclusief agrarisch)
PC_GRIJS;PercentageGrijs;Totaal percentage grijs per buurt (totaal - groen - boom, exclusief agrarisch)
GM_CODE;GM_CODE;Gemeente code
STED;STED;Stedelijkheidniveau
BEV_DICHT;BEV_DICHTH;Bevolkingsdichtheid
AANT_INW;AANT_INW;Aantal inwoners
PC_BEBKOM;PERCENTAGE;Percentage overlap met bebouwde kom 
